
     Program PWSCF v.6.5 starts on 12Feb2021 at 11:26:28 

     This program is part of the open-source Quantum ESPRESSO suite
     for quantum simulation of materials; please cite
         "P. Giannozzi et al., J. Phys.:Condens. Matter 21 395502 (2009);
         "P. Giannozzi et al., J. Phys.:Condens. Matter 29 465901 (2017);
          URL http://www.quantum-espresso.org", 
     in publications or presentations arising from this work. More details at
     http://www.quantum-espresso.org/quote

     Parallel version (MPI & OpenMP), running on      32 processor cores
     Number of MPI processes:                 4
     Threads/MPI process:                     8

     MPI processes distributed on     1 nodes
     R & G space division:  proc/nbgrp/npool/nimage =       4
     Waiting for input...
     Reading input from standard input

     Current dimensions of program PWSCF are:
     Max number of different atomic species (ntypx) = 10
     Max number of k-points (npk) =  40000
     Max angular momentum in pseudopotentials (lmaxx) =  3
     Message from routine iosys:
     mixing_mode=plain is ignored, 'TF' is adopted
     Message from routine iosys:
     accurate eigenvalues are required for all states: diago_full_acc=.TRUE.

     Subspace diagonalization in iterative solution of the eigenvalue problem:
     a serial algorithm will be used

     Found symmetry operation: I + ( -0.5000  0.0000  0.0000)
     This is a supercell, fractional translations are disabled
     Message from routine setup:
     using ibrav=0 with symmetry is DISCOURAGED, use correct ibrav instead

     Parallelization info
     --------------------
     sticks:   dense  smooth     PW     G-vecs:    dense   smooth      PW
     Min         187     187     54                 8037     8037    1261
     Max         188     188     56                 8044     8044    1262
     Sum         749     749    221                32157    32157    5047



     bravais-lattice index     =            0
     lattice parameter (alat)  =      10.8223  a.u.
     unit-cell volume          =    2655.9321 (a.u.)^3
     number of atoms/cell      =            4
     number of atomic types    =            1
     number of electrons       =        12.00
     number of Kohn-Sham states=           10
     kinetic-energy cutoff     =      20.0000  Ry
     charge density cutoff     =      80.0000  Ry
     convergence threshold     =      1.0E-06
     mixing beta               =       0.1000
     number of iterations used =            8  TF        mixing
     Exchange-correlation= SLA PW PBE PBE
                           (   1   4   3   4   0   0   0)

     Effective Screening Medium Method
     =================================
     Boundary Conditions: Metal-Slab-Metal
     grid points for fit at edges     =        4 


     >>>>> Grand-Canonical SCF is activated <<<<<
     Initial Total Charge  =     0.000000 e
     Target Fermi Energy   =    -4.251000 eV
     Thr. of Fermi Energy  =     0.010000 eV
     Wave-shift of Kerker  =     0.400000 bohr^-1
     Wave-shift of Hartree =     1.500000 bohr^-1
     Mixing Rate of Fermi  =     0.050000

     celldm(1)=  10.822273  celldm(2)=   0.000000  celldm(3)=   0.000000
     celldm(4)=   0.000000  celldm(5)=   0.000000  celldm(6)=   0.000000

     crystal axes: (cart. coord. in units of alat)
               a(1) = (   1.000000   0.000000   0.000000 )  
               a(2) = (   0.000000   1.000000   0.000000 )  
               a(3) = (   0.000000   0.000000   2.095374 )  

     reciprocal axes: (cart. coord. in units 2 pi/alat)
               b(1) = (  1.000000  0.000000  0.000000 )  
               b(2) = (  0.000000  1.000000  0.000000 )  
               b(3) = (  0.000000  0.000000  0.477242 )  


     PseudoPot. # 1 for Al read from file:
     /Users/otani/Program/q-e/pseudo/Al.pbe-n-van.UPF
     MD5 check sum: cbc97ad259b400557db688b98a6ada97
     Pseudo is Ultrasoft + core correction, Zval =  3.0
     Generated by new atomic code, or converted to UPF format
     Using radial grid of  893 points,  2 beta functions with: 
                l(1) =   0
                l(2) =   1
     Q(r) pseudized with  8 coefficients,  rinner =    0.900   0.900   0.900


     atomic species   valence    mass     pseudopotential
        Al             3.00    26.98154     Al( 1.00)

     16 Sym. Ops., with inversion, found



   Cartesian axes

     site n.     atom                  positions (alat units)
         1           Al  tau(   1) = (   0.0000000   0.0000000   0.0000000  )
         2           Al  tau(   2) = (   0.5000000   0.0000000   0.0000000  )
         3           Al  tau(   3) = (   0.0000000   0.5000000   0.0000000  )
         4           Al  tau(   4) = (   0.5000000   0.5000000   0.0000000  )

     number of k points=     6  Methfessel-Paxton smearing, width (Ry)=  0.0300
                       cart. coord. in units 2pi/alat
        k(    1) = (   0.0833333   0.0833333   0.0000000), wk =   0.2222222
        k(    2) = (   0.0833333   0.2500000   0.0000000), wk =   0.4444444
        k(    3) = (   0.0833333   0.4166667   0.0000000), wk =   0.4444444
        k(    4) = (   0.2500000   0.2500000   0.0000000), wk =   0.2222222
        k(    5) = (   0.2500000   0.4166667   0.0000000), wk =   0.4444444
        k(    6) = (   0.4166667   0.4166667   0.0000000), wk =   0.2222222

     Dense  grid:    32157 G-vectors     FFT dimensions: (  32,  32,  72)

     Estimated max dynamical RAM per process >       9.41 MB

     Estimated total dynamical RAM >      37.64 MB

     Check: negative core charge=   -0.000012

     Initial potential from superposition of free atoms

     starting charge   11.99014, renormalised to   12.00000

     negative rho (up, down):  1.687E-04 0.000E+00
     Starting wfcs are   16 randomized atomic wfcs

     total cpu time spent up to now is        0.7 secs

     Self-consistent Calculation

     iteration #  1     ecut=    20.00 Ry     beta= 0.10
     Davidson diagonalization with overlap
     ethr =  1.00E-05,  avg # of iterations = 13.0

     negative rho (up, down):  8.438E-05 0.000E+00

     total cpu time spent up to now is        2.7 secs

     total energy              =     -49.54738711 Ry
     Harris-Foulkes estimate   =     -49.55306191 Ry
     estimated scf accuracy    <       0.02466914 Ry

     total charge of GC-SCF    =      -0.00343033 e
     the Fermi energy          =      -5.13578244 eV
                        (error :       0.88478244 eV)

     iteration #  2     ecut=    20.00 Ry     beta= 0.10
     Davidson diagonalization with overlap
     ethr =  1.00E-05,  avg # of iterations =  1.0

     total cpu time spent up to now is        3.2 secs

     total energy              =     -49.50512440 Ry
     Harris-Foulkes estimate   =     -49.54655414 Ry
     estimated scf accuracy    <       0.02054909 Ry

     total charge of GC-SCF    =      -0.03789457 e
     the Fermi energy          =      -5.04368206 eV
                        (error :       0.79268206 eV)

     iteration #  3     ecut=    20.00 Ry     beta= 0.10
     Davidson diagonalization with overlap
     ethr =  1.00E-05,  avg # of iterations =  6.2

     total cpu time spent up to now is        4.2 secs

     total energy              =     -49.51650443 Ry
     Harris-Foulkes estimate   =     -49.51658958 Ry
     estimated scf accuracy    <       0.00053153 Ry

     total charge of GC-SCF    =      -0.03418199 e
     the Fermi energy          =      -4.07350883 eV
                        (error :       0.17749117 eV)

     iteration #  4     ecut=    20.00 Ry     beta= 0.10
     Davidson diagonalization with overlap
     ethr =  4.42E-06,  avg # of iterations =  1.8

     total cpu time spent up to now is        4.7 secs

     total energy              =     -49.51673228 Ry
     Harris-Foulkes estimate   =     -49.51650059 Ry
     estimated scf accuracy    <       0.00028789 Ry

     total charge of GC-SCF    =      -0.03017972 e
     the Fermi energy          =      -4.16590149 eV
                        (error :       0.08509851 eV)

     iteration #  5     ecut=    20.00 Ry     beta= 0.10
     Davidson diagonalization with overlap
     ethr =  2.39E-06,  avg # of iterations =  3.2

     total cpu time spent up to now is        5.3 secs

     total energy              =     -49.51693948 Ry
     Harris-Foulkes estimate   =     -49.51693180 Ry
     estimated scf accuracy    <       0.00001040 Ry

     total charge of GC-SCF    =      -0.02924625 e
     the Fermi energy          =      -4.10938186 eV
                        (error :       0.14161814 eV)

     iteration #  6     ecut=    20.00 Ry     beta= 0.10
     Davidson diagonalization with overlap
     ethr =  8.64E-08,  avg # of iterations = 10.0

     total cpu time spent up to now is        6.4 secs

     total energy              =     -49.51698827 Ry
     Harris-Foulkes estimate   =     -49.51692771 Ry
     estimated scf accuracy    <       0.00001190 Ry

     total charge of GC-SCF    =      -0.02485675 e
     the Fermi energy          =      -4.12864135 eV
                        (error :       0.12235865 eV)

     iteration #  7     ecut=    20.00 Ry     beta= 0.10
     Davidson diagonalization with overlap
     ethr =  8.64E-08,  avg # of iterations =  3.0

     total cpu time spent up to now is        7.1 secs

     total energy              =     -49.51702749 Ry
     Harris-Foulkes estimate   =     -49.51699394 Ry
     estimated scf accuracy    <       0.00001579 Ry

     total charge of GC-SCF    =      -0.02029381 e
     the Fermi energy          =      -4.14912903 eV
                        (error :       0.10187097 eV)

     iteration #  8     ecut=    20.00 Ry     beta= 0.10
     Davidson diagonalization with overlap
     ethr =  8.64E-08,  avg # of iterations =  3.0

     total cpu time spent up to now is        7.9 secs

     total energy              =     -49.51709187 Ry
     Harris-Foulkes estimate   =     -49.51710363 Ry
     estimated scf accuracy    <       0.00000210 Ry

     total charge of GC-SCF    =      -0.01553029 e
     the Fermi energy          =      -4.13373048 eV
                        (error :       0.11726952 eV)

     iteration #  9     ecut=    20.00 Ry     beta= 0.10
     Davidson diagonalization with overlap
     ethr =  1.75E-08,  avg # of iterations =  4.7

     total cpu time spent up to now is        8.7 secs

     total energy              =     -49.51696412 Ry
     Harris-Foulkes estimate   =     -49.51710567 Ry
     estimated scf accuracy    <       0.00000287 Ry

     total charge of GC-SCF    =      -0.00812743 e
     the Fermi energy          =      -4.15003701 eV
                        (error :       0.10096299 eV)

     iteration # 10     ecut=    20.00 Ry     beta= 0.10
     Davidson diagonalization with overlap
     ethr =  1.75E-08,  avg # of iterations =  5.0

     total cpu time spent up to now is        9.8 secs

     total energy              =     -49.51693292 Ry
     Harris-Foulkes estimate   =     -49.51696188 Ry
     estimated scf accuracy    <       0.00000423 Ry

     total charge of GC-SCF    =      -0.00660491 e
     the Fermi energy          =      -4.22105618 eV
                        (error :       0.02994382 eV)

     iteration # 11     ecut=    20.00 Ry     beta= 0.10
     Davidson diagonalization with overlap
     ethr =  1.75E-08,  avg # of iterations =  1.0

     total cpu time spent up to now is       10.3 secs

     total energy              =     -49.51681818 Ry
     Harris-Foulkes estimate   =     -49.51693407 Ry
     estimated scf accuracy    <       0.00000352 Ry

     total charge of GC-SCF    =      -0.00243824 e
     the Fermi energy          =      -4.22611142 eV
                        (error :       0.02488858 eV)

     iteration # 12     ecut=    20.00 Ry     beta= 0.10
     Davidson diagonalization with overlap
     ethr =  1.75E-08,  avg # of iterations =  2.2

     total cpu time spent up to now is       10.9 secs

     total energy              =     -49.51680540 Ry
     Harris-Foulkes estimate   =     -49.51682167 Ry
     estimated scf accuracy    <       0.00000014 Ry

     total charge of GC-SCF    =      -0.00184813 e
     the Fermi energy          =      -4.23682865 eV
                        (error :       0.01417135 eV)

     iteration # 13     ecut=    20.00 Ry     beta= 0.10
     Davidson diagonalization with overlap
     ethr =  1.16E-09,  avg # of iterations =  9.2

     total cpu time spent up to now is       11.9 secs

     End of self-consistent calculation

          k = 0.0833 0.0833 0.0000 (  3999 PWs)   bands (ev):

   -11.3430  -7.7674  -7.7674  -6.0591  -6.0591  -5.3026  -4.2817  -3.4090
    -2.1153  -2.0672

          k = 0.0833 0.2500 0.0000 (  4011 PWs)   bands (ev):

   -11.0949  -8.9001  -7.5233  -5.8314  -5.3807  -5.0650  -4.4876  -3.9275
    -2.9975  -1.8363

          k = 0.0833 0.4167 0.0000 (  4016 PWs)   bands (ev):

   -10.6006  -9.8652  -7.0376  -6.3179  -5.3799  -4.7240  -4.5925  -3.8936
    -2.6527  -1.3781

          k = 0.2500 0.2500 0.0000 (  4007 PWs)   bands (ev):

   -10.8471  -8.6557  -8.6557  -6.5011  -4.8276  -4.2656  -4.2656  -2.9523
    -2.7635  -2.7635

          k = 0.2500 0.4167 0.0000 (  4019 PWs)   bands (ev):

   -10.3535  -9.6192  -8.1693  -7.4472  -4.3558  -3.8355  -3.6579  -3.2531
    -2.4531  -2.2978

          k = 0.4167 0.4167 0.0000 (  4005 PWs)   bands (ev):

    -9.8615  -9.1297  -9.1297  -8.4017  -3.8848  -3.1889  -3.1889  -2.4955
    -2.1051  -2.1051

     the Fermi energy is    -4.2419 ev

!    total energy              =     -49.51672287 Ry
     Harris-Foulkes estimate   =     -49.51680524 Ry
     estimated scf accuracy    <       0.00000024 Ry

     total charge of GC-SCF    =      -0.00015524 e

     The total energy is the sum of the following terms:

     one-electron contribution =    -144.99832193 Ry
     hartree contribution      =      73.06102951 Ry
     xc contribution           =     -39.22118314 Ry
     ewald contribution        =      61.64193118 Ry
     smearing contrib. (-TS)   =      -0.00022699 Ry
     pot.stat. contrib. (-muN) =       0.00004850 Ry

     convergence has been achieved in  13 iterations

     Forces acting on atoms (cartesian axes, Ry/au):

     atom    1 type  1   force =     0.00000000    0.00000000    0.00000000
     atom    2 type  1   force =     0.00000000    0.00000000    0.00000000
     atom    3 type  1   force =     0.00000000    0.00000000    0.00000000
     atom    4 type  1   force =     0.00000000    0.00000000    0.00000000

     Total force =     0.000000     Total SCF correction =     0.000000

     Writing output data file /Users/otani/Program/q-e/tempdir/Al001_bc2_GCSCF_v00.save/

     init_run     :      0.34s CPU      0.57s WALL (       1 calls)
     electrons    :      6.83s CPU     11.18s WALL (       1 calls)
     forces       :      0.21s CPU      0.45s WALL (       1 calls)

     Called by init_run:
     wfcinit      :      0.17s CPU      0.34s WALL (       1 calls)
     potinit      :      0.05s CPU      0.08s WALL (       1 calls)
     hinit0       :      0.08s CPU      0.11s WALL (       1 calls)

     Called by electrons:
     c_bands      :      5.61s CPU      9.19s WALL (      13 calls)
     sum_band     :      0.73s CPU      1.16s WALL (      13 calls)
     v_of_rho     :      0.41s CPU      0.74s WALL (      14 calls)
     newd         :      0.07s CPU      0.08s WALL (      14 calls)
     mix_rho      :      0.04s CPU      0.05s WALL (      13 calls)

     Called by c_bands:
     init_us_2    :      0.04s CPU      0.04s WALL (     168 calls)
     cegterg      :      5.56s CPU      9.14s WALL (      80 calls)

     Called by sum_band:
     sum_band:bec :      0.01s CPU      0.04s WALL (      78 calls)
     addusdens    :      0.05s CPU      0.06s WALL (      13 calls)

     Called by *egterg:
     h_psi        :      4.79s CPU      8.22s WALL (     465 calls)
     s_psi        :      0.07s CPU      0.09s WALL (     465 calls)
     g_psi        :      0.02s CPU      0.03s WALL (     379 calls)
     cdiaghg      :      0.22s CPU      0.35s WALL (     459 calls)

     Called by h_psi:
     h_psi:calbec :      0.12s CPU      0.15s WALL (     465 calls)
     vloc_psi     :      4.54s CPU      7.86s WALL (     465 calls)
     add_vuspsi   :      0.10s CPU      0.14s WALL (     465 calls)

     General routines
     calbec       :      0.15s CPU      0.20s WALL (     567 calls)
     fft          :      0.14s CPU      0.19s WALL (     165 calls)
     ffts         :      0.01s CPU      0.01s WALL (      13 calls)
     fftw         :      4.40s CPU      7.31s WALL (    7426 calls)

     Parallel routines
     fft_scatt_xy :      0.54s CPU      0.85s WALL (    7604 calls)
     fft_scatt_yz :      1.92s CPU      3.10s WALL (    7604 calls)

     PWSCF        :      7.53s CPU     12.42s WALL


   This run was terminated on:  11:26:40  12Feb2021            

=------------------------------------------------------------------------------=
   JOB DONE.
=------------------------------------------------------------------------------=
