
     Program PWSCF v.6.5 starts on 12Feb2021 at 11:21:44 

     This program is part of the open-source Quantum ESPRESSO suite
     for quantum simulation of materials; please cite
         "P. Giannozzi et al., J. Phys.:Condens. Matter 21 395502 (2009);
         "P. Giannozzi et al., J. Phys.:Condens. Matter 29 465901 (2017);
          URL http://www.quantum-espresso.org", 
     in publications or presentations arising from this work. More details at
     http://www.quantum-espresso.org/quote

     Parallel version (MPI & OpenMP), running on      32 processor cores
     Number of MPI processes:                 4
     Threads/MPI process:                     8

     MPI processes distributed on     1 nodes
     R & G space division:  proc/nbgrp/npool/nimage =       4
     Waiting for input...
     Reading input from standard input

     Current dimensions of program PWSCF are:
     Max number of different atomic species (ntypx) = 10
     Max number of k-points (npk) =  40000
     Max angular momentum in pseudopotentials (lmaxx) =  3

     gamma-point specific algorithms are used

     Subspace diagonalization in iterative solution of the eigenvalue problem:
     a serial algorithm will be used


     Parallelization info
     --------------------
     sticks:   dense  smooth     PW     G-vecs:    dense   smooth      PW
     Min        1591     794    198               114643    40525    5074
     Max        1594     797    199               114648    40530    5081
     Sum        6369    3181    793               458581   162113   20303



     bravais-lattice index     =            0
     lattice parameter (alat)  =      20.0000  a.u.
     unit-cell volume          =    9599.9886 (a.u.)^3
     number of atoms/cell      =            3
     number of atomic types    =            2
     number of electrons       =         8.00
     number of Kohn-Sham states=            8
     kinetic-energy cutoff     =      25.0000  Ry
     charge density cutoff     =     200.0000  Ry
     convergence threshold     =      1.0E-06
     mixing beta               =       0.3000
     number of iterations used =            8  plain     mixing
     Exchange-correlation= SLA PW PBE PBE
                           (   1   4   3   4   0   0   0)

     Effective Screening Medium Method
     =================================
     Boundary Conditions: Vacuum-Slab-Vacuum
     grid points for fit at edges     =        4 


     celldm(1)=  19.999992  celldm(2)=   0.000000  celldm(3)=   0.000000
     celldm(4)=   0.000000  celldm(5)=   0.000000  celldm(6)=   0.000000

     crystal axes: (cart. coord. in units of alat)
               a(1) = (   1.000000   0.000000   0.000000 )  
               a(2) = (   0.000000   1.000000   0.000000 )  
               a(3) = (   0.000000   0.000000   1.200000 )  

     reciprocal axes: (cart. coord. in units 2 pi/alat)
               b(1) = (  1.000000  0.000000  0.000000 )  
               b(2) = (  0.000000  1.000000  0.000000 )  
               b(3) = (  0.000000  0.000000  0.833333 )  


     PseudoPot. # 1 for H  read from file:
     /Users/otani/Program/q-e/pseudo/H.pbe-van_ak.UPF
     MD5 check sum: a537b41238c433fb4068aaff04c6fb4a
     Pseudo is Ultrasoft, Zval =  1.0
     Generated by new atomic code, or converted to UPF format
     Using radial grid of  615 points,  1 beta functions with: 
                l(1) =   0
     Q(r) pseudized with  8 coefficients,  rinner =    0.800

     PseudoPot. # 2 for O  read from file:
     /Users/otani/Program/q-e/pseudo/O.pbe-van_ak.UPF
     MD5 check sum: 572909515f9aa9498032b6eb5528d5f9
     Pseudo is Ultrasoft, Zval =  6.0
     Generated by new atomic code, or converted to UPF format
     Using radial grid of  737 points,  4 beta functions with: 
                l(1) =   0
                l(2) =   0
                l(3) =   1
                l(4) =   1
     Q(r) pseudized with  8 coefficients,  rinner =    0.800   0.800   0.800


     atomic species   valence    mass     pseudopotential
        H              1.00     1.00794     H ( 1.00)
        O              6.00    55.84700     O ( 1.00)

     No symmetry found



   Cartesian axes

     site n.     atom                  positions (alat units)
         1           O   tau(   1) = (   0.0000000   0.5000000   0.0000000  )
         2           H   tau(   2) = (   0.0431388   0.4310286   0.0430783  )
         3           H   tau(   3) = (   0.0366354   0.5764064   0.0359492  )

     number of k points=     1  Methfessel-Paxton smearing, width (Ry)=  0.0300
                       cart. coord. in units 2pi/alat
        k(    1) = (   0.0000000   0.0000000   0.0000000), wk =   2.0000000

     Dense  grid:   229291 G-vectors     FFT dimensions: (  96,  96, 120)

     Smooth grid:    81057 G-vectors     FFT dimensions: (  64,  64,  80)

     Estimated max dynamical RAM per process >      91.22 MB

     Estimated total dynamical RAM >     364.88 MB

     Initial potential from superposition of free atoms

     starting charge    7.99998, renormalised to    8.00000

     negative rho (up, down):  2.904E-03 0.000E+00
     Starting wfcs are    6 randomized atomic wfcs +    2 random wfcs

     total cpu time spent up to now is        1.1 secs

     Self-consistent Calculation

     iteration #  1     ecut=    25.00 Ry     beta= 0.30
     Davidson diagonalization with overlap
     ethr =  1.00E-02,  avg # of iterations =  6.0

     negative rho (up, down):  2.982E-03 0.000E+00

     total cpu time spent up to now is        1.6 secs

     total energy              =     -34.39091184 Ry
     Harris-Foulkes estimate   =     -34.57071848 Ry
     estimated scf accuracy    <       0.43874833 Ry

     iteration #  2     ecut=    25.00 Ry     beta= 0.30
     Davidson diagonalization with overlap
     ethr =  5.48E-03,  avg # of iterations =  2.0

     negative rho (up, down):  4.791E-03 0.000E+00

     total cpu time spent up to now is        2.1 secs

     total energy              =     -34.42175517 Ry
     Harris-Foulkes estimate   =     -34.43847372 Ry
     estimated scf accuracy    <       0.05096550 Ry

     iteration #  3     ecut=    25.00 Ry     beta= 0.30
     Davidson diagonalization with overlap
     ethr =  6.37E-04,  avg # of iterations =  5.0

     negative rho (up, down):  7.977E-03 0.000E+00

     total cpu time spent up to now is        2.7 secs

     total energy              =     -34.42751729 Ry
     Harris-Foulkes estimate   =     -34.43229022 Ry
     estimated scf accuracy    <       0.01420387 Ry

     iteration #  4     ecut=    25.00 Ry     beta= 0.30
     Davidson diagonalization with overlap
     ethr =  1.78E-04,  avg # of iterations =  2.0

     negative rho (up, down):  1.120E-02 0.000E+00

     total cpu time spent up to now is        3.2 secs

     total energy              =     -34.42749291 Ry
     Harris-Foulkes estimate   =     -34.43084511 Ry
     estimated scf accuracy    <       0.00706931 Ry

     iteration #  5     ecut=    25.00 Ry     beta= 0.30
     Davidson diagonalization with overlap
     ethr =  8.84E-05,  avg # of iterations =  4.0

     negative rho (up, down):  9.661E-03 0.000E+00

     total cpu time spent up to now is        3.7 secs

     total energy              =     -34.42884131 Ry
     Harris-Foulkes estimate   =     -34.42885467 Ry
     estimated scf accuracy    <       0.00009756 Ry

     iteration #  6     ecut=    25.00 Ry     beta= 0.30
     Davidson diagonalization with overlap
     ethr =  1.22E-06,  avg # of iterations = 14.0

     negative rho (up, down):  8.993E-03 0.000E+00

     total cpu time spent up to now is        4.3 secs

     total energy              =     -34.42885529 Ry
     Harris-Foulkes estimate   =     -34.42886362 Ry
     estimated scf accuracy    <       0.00010313 Ry

     iteration #  7     ecut=    25.00 Ry     beta= 0.30
     Davidson diagonalization with overlap
     ethr =  1.22E-06,  avg # of iterations =  1.0

     negative rho (up, down):  8.721E-03 0.000E+00

     total cpu time spent up to now is        4.8 secs

     total energy              =     -34.42879097 Ry
     Harris-Foulkes estimate   =     -34.42885576 Ry
     estimated scf accuracy    <       0.00009218 Ry

     iteration #  8     ecut=    25.00 Ry     beta= 0.30
     Davidson diagonalization with overlap
     ethr =  1.15E-06,  avg # of iterations =  3.0

     negative rho (up, down):  8.709E-03 0.000E+00

     total cpu time spent up to now is        5.3 secs

     total energy              =     -34.42882384 Ry
     Harris-Foulkes estimate   =     -34.42889721 Ry
     estimated scf accuracy    <       0.00025348 Ry

     iteration #  9     ecut=    25.00 Ry     beta= 0.30
     Davidson diagonalization with overlap
     ethr =  1.15E-06,  avg # of iterations =  2.0

     negative rho (up, down):  8.746E-03 0.000E+00

     total cpu time spent up to now is        5.9 secs

     total energy              =     -34.42883485 Ry
     Harris-Foulkes estimate   =     -34.42883950 Ry
     estimated scf accuracy    <       0.00005109 Ry

     iteration # 10     ecut=    25.00 Ry     beta= 0.30
     Davidson diagonalization with overlap
     ethr =  6.39E-07,  avg # of iterations =  1.0

     negative rho (up, down):  8.803E-03 0.000E+00

     total cpu time spent up to now is        6.4 secs

     total energy              =     -34.42882855 Ry
     Harris-Foulkes estimate   =     -34.42883529 Ry
     estimated scf accuracy    <       0.00003728 Ry

     iteration # 11     ecut=    25.00 Ry     beta= 0.30
     Davidson diagonalization with overlap
     ethr =  4.66E-07,  avg # of iterations =  1.0

     negative rho (up, down):  8.851E-03 0.000E+00

     total cpu time spent up to now is        7.0 secs

     total energy              =     -34.42882891 Ry
     Harris-Foulkes estimate   =     -34.42882990 Ry
     estimated scf accuracy    <       0.00001503 Ry

     iteration # 12     ecut=    25.00 Ry     beta= 0.30
     Davidson diagonalization with overlap
     ethr =  1.88E-07,  avg # of iterations =  1.0

     negative rho (up, down):  8.889E-03 0.000E+00

     total cpu time spent up to now is        7.5 secs

     total energy              =     -34.42882891 Ry
     Harris-Foulkes estimate   =     -34.42882904 Ry
     estimated scf accuracy    <       0.00001169 Ry

     iteration # 13     ecut=    25.00 Ry     beta= 0.30
     Davidson diagonalization with overlap
     ethr =  1.46E-07,  avg # of iterations =  1.0

     negative rho (up, down):  8.920E-03 0.000E+00

     total cpu time spent up to now is        8.0 secs

     total energy              =     -34.42882618 Ry
     Harris-Foulkes estimate   =     -34.42882895 Ry
     estimated scf accuracy    <       0.00001076 Ry

     iteration # 14     ecut=    25.00 Ry     beta= 0.30
     Davidson diagonalization with overlap
     ethr =  1.35E-07,  avg # of iterations =  1.0

     negative rho (up, down):  8.931E-03 0.000E+00

     total cpu time spent up to now is        8.6 secs

     total energy              =     -34.42882677 Ry
     Harris-Foulkes estimate   =     -34.42882704 Ry
     estimated scf accuracy    <       0.00000336 Ry

     iteration # 15     ecut=    25.00 Ry     beta= 0.30
     Davidson diagonalization with overlap
     ethr =  4.20E-08,  avg # of iterations =  2.0

     negative rho (up, down):  8.945E-03 0.000E+00

     total cpu time spent up to now is        9.2 secs

     total energy              =     -34.42882737 Ry
     Harris-Foulkes estimate   =     -34.42882790 Ry
     estimated scf accuracy    <       0.00000190 Ry

     iteration # 16     ecut=    25.00 Ry     beta= 0.30
     Davidson diagonalization with overlap
     ethr =  2.37E-08,  avg # of iterations =  1.0

     negative rho (up, down):  8.990E-03 0.000E+00

     total cpu time spent up to now is        9.7 secs

     End of self-consistent calculation

          k = 0.0000 0.0000 0.0000 ( 10152 PWs)   bands (ev):

   -25.3098 -13.0909  -9.2763  -7.2398  -1.1884  -0.1563   0.2661   0.3670

     the Fermi energy is    -6.8962 ev

!    total energy              =     -34.42882718 Ry
     Harris-Foulkes estimate   =     -34.42882749 Ry
     estimated scf accuracy    <       0.00000052 Ry

     The total energy is the sum of the following terms:

     one-electron contribution =     -57.39611138 Ry
     hartree contribution      =      30.11108603 Ry
     xc contribution           =      -8.40249392 Ry
     ewald contribution        =       1.25695273 Ry
     smearing contrib. (-TS)   =       0.00173937 Ry

     convergence has been achieved in  16 iterations

     Forces acting on atoms (cartesian axes, Ry/au):

     atom    1 type  2   force =    -0.00188087   -0.00031620   -0.00056227
     atom    2 type  1   force =     0.00093073   -0.00046225    0.00048474
     atom    3 type  1   force =     0.00095013    0.00077844    0.00050031

     Total force =     0.002651     Total SCF correction =     0.000491
     SCF correction compared to forces is large: reduce conv_thr to get better values

     Writing output data file /Users/otani/Program/q-e/tempdir/H2O_bc1.save/

     init_run     :      0.83s CPU      0.89s WALL (       1 calls)
     electrons    :      9.06s CPU      8.64s WALL (       1 calls)
     forces       :      0.81s CPU      1.30s WALL (       1 calls)

     Called by init_run:
     wfcinit      :      0.02s CPU      0.02s WALL (       1 calls)
     potinit      :      0.43s CPU      0.38s WALL (       1 calls)
     hinit0       :      0.27s CPU      0.36s WALL (       1 calls)

     Called by electrons:
     c_bands      :      1.03s CPU      1.03s WALL (      16 calls)
     sum_band     :      1.82s CPU      1.28s WALL (      16 calls)
     v_of_rho     :      4.23s CPU      4.66s WALL (      17 calls)
     newd         :      1.18s CPU      1.07s WALL (      17 calls)
     mix_rho      :      0.62s CPU      0.48s WALL (      16 calls)

     Called by c_bands:
     init_us_2    :      0.02s CPU      0.01s WALL (      33 calls)
     regterg      :      1.00s CPU      1.01s WALL (      16 calls)

     Called by sum_band:
     sum_band:bec :      0.00s CPU      0.01s WALL (      16 calls)
     addusdens    :      1.23s CPU      0.80s WALL (      16 calls)

     Called by *egterg:
     h_psi        :      0.86s CPU      0.84s WALL (      64 calls)
     s_psi        :      0.01s CPU      0.01s WALL (      64 calls)
     g_psi        :      0.00s CPU      0.00s WALL (      47 calls)
     rdiaghg      :      0.03s CPU      0.06s WALL (      63 calls)

     Called by h_psi:
     h_psi:calbec :      0.03s CPU      0.03s WALL (      64 calls)
     vloc_psi     :      0.82s CPU      0.78s WALL (      64 calls)
     add_vuspsi   :      0.01s CPU      0.02s WALL (      64 calls)

     General routines
     calbec       :      0.04s CPU      0.04s WALL (      84 calls)
     fft          :      3.07s CPU      2.15s WALL (     187 calls)
     ffts         :      0.14s CPU      0.12s WALL (      33 calls)
     fftw         :      0.82s CPU      0.75s WALL (     434 calls)
     interpolate  :      0.39s CPU      0.34s WALL (      17 calls)

     Parallel routines
     fft_scatt_xy :      0.58s CPU      0.31s WALL (     654 calls)
     fft_scatt_yz :      1.55s CPU      1.37s WALL (     654 calls)

     PWSCF        :     10.87s CPU     11.05s WALL


   This run was terminated on:  11:21:55  12Feb2021            

=------------------------------------------------------------------------------=
   JOB DONE.
=------------------------------------------------------------------------------=
